<svg width="78" height="91" viewBox="0 0 78 91" fill="none" xmlns="http://www.w3.org/2000/svg">
<path fill-rule="evenodd" clip-rule="evenodd" d="M57.2901 38.6772C57.2901 48.8142 49.0725 57.0318 38.9355 57.0318C28.7985 57.0318 20.5809 48.8142 20.5809 38.6772C20.5809 28.5402 28.7985 20.3226 38.9355 20.3226C49.0725 20.3226 57.2901 28.5402 57.2901 38.6772ZM49.8538 75.7919C65.8982 71.0796 77.6127 56.2464 77.6127 38.6772C77.6127 17.3164 60.2963 0 38.9355 0C17.5747 0 0.258301 17.3164 0.258301 38.6772C0.258301 57.3563 13.4997 72.9427 31.1079 76.5619L40.2243 90.2467L49.8538 75.7919Z" fill="#2EB800"/>
</svg>
