<svg width="30" height="30" viewBox="0 0 30 30" fill="none" xmlns="http://www.w3.org/2000/svg">
<g clip-path="url(#clip0)">
<path d="M10.3753 10.141C11.1664 10.8293 12.2742 11.1106 13.2993 10.8967C14.2909 10.69 15.157 10.0202 15.6214 9.12191C16.6117 7.20632 15.5022 4.80635 13.4222 4.28021C11.9751 3.91414 10.4141 4.57614 9.66212 5.86413C8.84971 7.25496 9.15867 9.08842 10.3753 10.141Z" fill="currentColor"/>
<path d="M29.2987 21.2953C29.2538 20.3851 28.4796 19.6836 27.5695 19.7284L18.3143 20.1841C18.1425 17.8382 18.4706 14.0472 18.6904 13.5175C18.7305 13.4599 18.7677 13.3994 18.8009 13.3355L23.5731 4.15884C23.9059 3.5157 23.6838 2.71355 23.0526 2.3406C22.3988 1.95428 21.5557 2.17113 21.1693 2.82492C21.1693 2.82492 16.7307 9.98188 14.504 10.9002C12.2774 11.8185 3.70895 13.9809 3.70895 13.9809C3.01546 14.1857 2.5901 14.9 2.75665 15.6132C2.92937 16.3527 3.66885 16.8122 4.4084 16.6394L11.0171 15L11.1628 21.5103L1.82692 24.6357C1.00346 24.9131 0.526285 25.7907 0.760075 26.6389C1.0022 27.5173 1.9107 28.0332 2.78914 27.791L14.7599 24.4914C17.7446 23.7084 27.8207 23.0176 27.8207 23.0176C28.6849 22.9263 29.3419 22.1739 29.2987 21.2953Z" fill="currentColor"/>
</g>
<defs>
<clipPath id="clip0">
<rect width="28.6" height="28.6" fill="currentColor" transform="translate(0.700195 0.699951)"/>
</clipPath>
</defs>
</svg>
