<svg width="40" height="40" viewBox="0 0 40 40" fill="none" xmlns="http://www.w3.org/2000/svg">
<g clip-path="url(#clip0)">
<path d="M39.3202 6.0453C38.6161 5.57242 37.6619 5.75983 37.1887 6.4641L32.9607 12.7598C32.4967 12.528 31.9736 12.397 31.4196 12.397H29.1156C28.5644 12.397 28.0437 12.5267 27.5812 12.7563L23.3557 6.46424C22.8826 5.75969 21.9285 5.57256 21.2242 6.04544C20.52 6.51846 20.3326 7.47265 20.8054 8.17692L25.6846 15.4423C25.6486 15.7459 25.6641 35.9176 25.6641 35.9176C25.6641 36.978 26.5237 37.8376 27.5841 37.8376C28.6445 37.8376 29.5041 36.978 29.5041 35.9176V27.2773H31.0402V35.9176C31.0402 36.978 31.8998 37.8376 32.9602 37.8376C34.0206 37.8376 34.8802 36.978 34.8802 35.9176C34.8802 28.4975 34.8896 15.7835 34.852 15.4539L39.739 8.17692C40.2119 7.47251 40.0245 6.51832 39.3202 6.0453Z" fill="currentColor"/>
<path d="M30.2724 11.3238C32.305 11.3238 33.9535 9.67682 33.9535 7.64284C33.9535 6.35117 33.2863 5.2151 32.2782 4.55841C32.4778 4.42522 32.7053 4.30185 32.9695 4.19452C33.0952 4.14348 33.1798 4.02426 33.1862 3.88872C33.1927 3.75317 33.1197 3.62634 32.9992 3.56369C32.417 3.26134 31.7077 3.25512 31.0382 3.38347C31.1518 3.17075 31.2948 2.95347 31.4785 2.73314C31.5653 2.62886 31.5837 2.48363 31.5255 2.36123C31.4673 2.23869 31.3431 2.16123 31.2074 2.16262C29.8621 2.17797 28.6281 3.54184 28.1365 4.35745C28.049 4.50267 27.9786 4.6544 27.9257 4.80833C27.1107 5.48356 26.5913 6.50276 26.5913 7.6427C26.5914 9.67682 28.24 11.3238 30.2724 11.3238Z" fill="currentColor"/>
<path d="M18.7758 6.04526C18.0716 5.57238 17.1174 5.75979 16.6443 6.46406L15.6429 7.95531C15.2487 7.77025 14.8099 7.74646 14.3905 7.97232C14.3648 7.98615 14.3412 8.00206 14.3167 8.01699L14.3226 8.00012C14.4282 7.69999 14.2703 7.37123 13.9702 7.2657C13.7657 7.19364 13.5497 7.24592 13.3984 7.38008C13.2634 5.47141 11.6719 3.96301 9.72785 3.96301C7.78364 3.96301 6.19211 5.47141 6.05712 7.38008C5.90554 7.24592 5.68964 7.1935 5.48535 7.2657C5.18522 7.37123 5.02741 7.69999 5.13294 8.00012L5.13889 8.01699C5.11441 8.00192 5.09062 7.98601 5.06517 7.97232C4.64596 7.74646 4.20682 7.77025 3.81264 7.95517L2.81128 6.46406C2.33827 5.75951 1.38366 5.57224 0.6798 6.04526C-0.0244708 6.51827 -0.21188 7.47247 0.260999 8.17674L2.01905 10.7945C1.92431 11.28 1.92209 11.7747 2.08544 12.2228C2.13191 12.3504 2.24823 12.4393 2.38335 12.4505C2.51876 12.4617 2.64794 12.3932 2.71474 12.2753C2.76108 12.1935 2.80893 12.117 2.85748 12.0432L5.14013 15.4421C5.10556 15.7352 5.11496 15.4619 5.11496 20.3777L3.024 28.9025C2.92649 29.3001 3.01695 29.7206 3.26978 30.0427C3.52233 30.365 3.90918 30.5531 4.31872 30.5531H5.11966V35.9173C5.11966 36.9777 5.97926 37.8373 7.03967 37.8373C8.10009 37.8373 8.95968 36.9777 8.95968 35.9173V30.5531H10.4957V35.9173C10.4957 36.9777 11.3553 37.8373 12.4158 37.8373C13.4762 37.8373 14.3358 36.9777 14.3358 35.9173V30.5531H15.1277C15.5373 30.5531 15.9241 30.365 16.1767 30.0427C16.4295 29.7206 16.5199 29.3001 16.4224 28.9025L14.3313 20.3769H14.3312C14.3312 15.4598 14.34 15.7384 14.3075 15.4537L16.5981 12.0429C16.6468 12.1168 16.6945 12.1932 16.7408 12.275C16.8076 12.3931 16.9369 12.4616 17.0722 12.4502C17.2076 12.439 17.3238 12.3501 17.3703 12.2226C17.5336 11.7744 17.5313 11.2797 17.4365 10.7942L19.1946 8.17646C19.6674 7.47247 19.48 6.51827 18.7758 6.04526ZM12.4164 12.7598C11.9524 12.5279 11.4292 12.397 10.8751 12.397H8.57117C8.02001 12.397 7.49927 12.5267 7.03691 12.7562L5.36945 10.2735C5.50098 10.1919 5.60402 10.1003 5.66737 9.98264C5.71633 9.89164 5.75492 9.79786 5.78341 9.70257C5.89171 9.8193 6.04412 9.8879 6.20442 9.8879C6.26777 9.8879 6.33236 9.87739 6.39543 9.85512C6.50179 9.81764 6.5892 9.75125 6.65448 9.66882C7.31325 10.666 8.44365 11.324 9.72785 11.324C11.0121 11.324 12.1425 10.666 12.8011 9.66882C12.8664 9.75125 12.9538 9.81764 13.0603 9.85512C13.1235 9.87739 13.1879 9.8879 13.2513 9.8879C13.4116 9.8879 13.564 9.81916 13.6723 9.70257C13.7008 9.79772 13.7392 9.89164 13.7883 9.98264C13.8517 10.1002 13.9547 10.1918 14.0863 10.2734L12.4164 12.7598Z" fill="currentColor"/>
</g>
<defs>
<clipPath id="clip0">
<rect width="40" height="40" fill="white"/>
</clipPath>
</defs>
</svg>
