<svg width="22" height="22" viewBox="0 0 22 22" fill="none" xmlns="http://www.w3.org/2000/svg">
<g clip-path="url(#clip0)">
<path d="M11.229 1.83333H10.2207C9.91817 0.779167 8.9465 0 7.7915 0C6.6365 0 5.66484 0.779167 5.36234 1.83333H4.354C3.97817 1.83333 3.6665 2.145 3.6665 2.52083V3.89583C3.6665 4.77583 4.39067 5.5 5.27067 5.5H10.3123C11.1923 5.5 11.9165 4.77583 11.9165 3.89583V2.52083C11.9165 2.145 11.6048 1.83333 11.229 1.83333Z" fill="currentColor"/>
<path d="M13.0625 2.75H12.8333V3.89583C12.8333 5.28917 11.7058 6.41667 10.3125 6.41667H5.27083C3.8775 6.41667 2.75 5.28917 2.75 3.89583V2.75H2.52083C1.1275 2.75 0 3.8775 0 5.27083V16.7292C0 18.1225 1.1275 19.25 2.52083 19.25H9.28583L9.4875 18.1225C9.57917 17.6092 9.8175 17.1508 10.1842 16.775L10.9175 16.0417H3.4375C3.06167 16.0417 2.75 15.73 2.75 15.3542C2.75 14.9783 3.06167 14.6667 3.4375 14.6667H12.1458C12.1917 14.6667 12.2283 14.6667 12.2742 14.685H12.2833L15.5833 11.385V5.27083C15.5833 3.8775 14.4558 2.75 13.0625 2.75ZM12.1458 13.0625H3.4375C3.06167 13.0625 2.75 12.7508 2.75 12.375C2.75 11.9992 3.06167 11.6875 3.4375 11.6875H12.1458C12.5217 11.6875 12.8333 11.9992 12.8333 12.375C12.8333 12.7508 12.5217 13.0625 12.1458 13.0625ZM12.1458 10.0833H3.4375C3.06167 10.0833 2.75 9.77167 2.75 9.39583C2.75 9.02 3.06167 8.70833 3.4375 8.70833H12.1458C12.5217 8.70833 12.8333 9.02 12.8333 9.39583C12.8333 9.77167 12.5217 10.0833 12.1458 10.0833Z" fill="currentColor"/>
<path d="M11.483 21.9998C11.3025 21.9998 11.1265 21.9283 10.9972 21.7982C10.8386 21.6396 10.7671 21.4141 10.8065 21.1923L11.2924 18.4377C11.3162 18.2993 11.384 18.1709 11.483 18.071L18.2893 11.2657C19.1253 10.4279 19.9466 10.6543 20.3958 11.1035L21.5297 12.2374C22.1558 12.8625 22.1558 13.88 21.5297 14.5061L14.7235 21.3123C14.6245 21.4123 14.4961 21.4792 14.3568 21.503L11.6022 21.9888C11.5628 21.9962 11.5225 21.9998 11.483 21.9998ZM14.2376 20.8265H14.2468H14.2376Z" fill="currentColor"/>
</g>
<defs>
<clipPath id="clip0">
<rect width="22" height="22" fill="white"/>
</clipPath>
</defs>
</svg>
