<svg width="34" height="24" viewBox="0 0 34 24" fill="none" xmlns="http://www.w3.org/2000/svg">
<path d="M33.9996 12.663V20.0896C33.9996 21.814 32.6052 23.2084 30.8808 23.2084H3.25357C1.5292 23.2084 0.134766 21.814 0.134766 20.0896V12.5945" fill="#FF4B55"/>
<path d="M0.134766 12.5946V3.97903C0.134766 2.25466 1.5292 0.860229 3.25357 0.860229H30.8746C32.5989 0.860229 33.9934 2.25466 33.9934 3.97903V12.6569" fill="#F5F5F5"/>
<path d="M33.9996 8.26807H0.134766V15.8005H33.9996V8.26807Z" fill="#41479B"/>
</svg>
