<svg width="16" height="16" viewBox="0 0 16 16" fill="none" xmlns="http://www.w3.org/2000/svg">
<path fill-rule="evenodd" clip-rule="evenodd" d="M7.99967 1.33333C6.58519 1.33333 5.22863 1.89524 4.22844 2.89543C3.22824 3.89562 2.66634 5.25218 2.66634 6.66667C2.66634 8.73204 4.01017 10.7362 5.48364 12.2915C6.20675 13.0548 6.93212 13.6796 7.47746 14.1139C7.68042 14.2755 7.85769 14.4101 7.99967 14.5151C8.14166 14.4101 8.31893 14.2755 8.52189 14.1139C9.06723 13.6796 9.7926 13.0548 10.5157 12.2915C11.9892 10.7362 13.333 8.73204 13.333 6.66667C13.333 5.25218 12.7711 3.89562 11.7709 2.89543C10.7707 1.89524 9.41416 1.33333 7.99967 1.33333ZM7.99967 15.3333C7.62987 15.888 7.62971 15.8879 7.62951 15.8878L7.62761 15.8865L7.62317 15.8835L7.60789 15.8732C7.59491 15.8644 7.57639 15.8517 7.55271 15.8353C7.50536 15.8025 7.43732 15.7547 7.35154 15.6928C7.18004 15.5689 6.93725 15.3881 6.64689 15.1569C6.06723 14.6954 5.2926 14.0286 4.51571 13.2085C2.98918 11.5972 1.33301 9.26796 1.33301 6.66667C1.33301 4.89856 2.03539 3.20286 3.28563 1.95262C4.53587 0.702379 6.23156 0 7.99967 0C9.76778 0 11.4635 0.702379 12.7137 1.95262C13.964 3.20286 14.6663 4.89856 14.6663 6.66667C14.6663 9.26796 13.0102 11.5972 11.4836 13.2085C10.7067 14.0286 9.93212 14.6954 9.35246 15.1569C9.0621 15.3881 8.81931 15.5689 8.64781 15.6928C8.56203 15.7547 8.49399 15.8025 8.44664 15.8353C8.42296 15.8517 8.40444 15.8644 8.39146 15.8732L8.37618 15.8835L8.37174 15.8865L8.37033 15.8875C8.37014 15.8876 8.36947 15.888 7.99967 15.3333ZM7.99967 15.3333L8.36947 15.888C8.14554 16.0373 7.85345 16.0371 7.62951 15.8878L7.99967 15.3333Z" fill="currentColor"/>
<path fill-rule="evenodd" clip-rule="evenodd" d="M7.99967 5.33333C7.26329 5.33333 6.66634 5.93029 6.66634 6.66667C6.66634 7.40305 7.26329 8 7.99967 8C8.73605 8 9.33301 7.40305 9.33301 6.66667C9.33301 5.93029 8.73605 5.33333 7.99967 5.33333ZM5.33301 6.66667C5.33301 5.19391 6.52692 4 7.99967 4C9.47243 4 10.6663 5.19391 10.6663 6.66667C10.6663 8.13943 9.47243 9.33333 7.99967 9.33333C6.52692 9.33333 5.33301 8.13943 5.33301 6.66667Z" fill="currentColor"/>
</svg>
