<svg width="31" height="30" viewBox="0 0 31 30" fill="none" xmlns="http://www.w3.org/2000/svg">
<path d="M15.1561 27.3288C11.1887 27.3288 7.95508 24.1014 7.95508 20.1278C7.95508 16.1542 11.1887 12.933 15.1561 12.933C19.1235 12.933 22.3571 16.1604 22.3571 20.134C22.3571 24.1076 19.1235 27.3288 15.1561 27.3288ZM15.1561 13.9901C11.767 13.9901 9.01222 16.7449 9.01222 20.134C9.01222 23.5231 11.767 26.2716 15.1561 26.2716C18.5452 26.2716 21.2999 23.5168 21.2999 20.1278C21.2999 16.7387 18.5452 13.9901 15.1561 13.9901Z" fill="currentColor"/>
<path d="M15.1872 29.9716C9.73358 29.9716 5.2998 25.5378 5.2998 20.0842C5.2998 14.6306 9.73358 10.1968 15.1872 10.1968C20.6408 10.1968 25.0746 14.6306 25.0746 20.0842C25.0746 25.5378 20.6408 29.9716 15.1872 29.9716ZM15.1872 11.2539C10.3181 11.2539 6.35695 15.2151 6.35695 20.0842C6.35695 24.9532 10.3181 28.9144 15.1872 28.9144C20.0563 28.9144 24.0174 24.9532 24.0174 20.0842C24.0174 15.2151 20.0563 11.2539 15.1872 11.2539Z" fill="currentColor"/>
<path d="M17.3018 23.5665H13.4153C13.123 23.5665 12.8867 23.3302 12.8867 23.038C12.8867 22.7457 13.123 22.5094 13.4153 22.5094H17.3018C17.5941 22.5094 17.8304 22.7457 17.8304 23.038C17.8304 23.3302 17.5941 23.5665 17.3018 23.5665Z" fill="currentColor"/>
<path d="M15.3743 23.411C15.082 23.411 14.8457 23.1747 14.8457 22.8824L14.8768 16.5707C14.8768 16.2784 15.1131 16.0421 15.4054 16.0421C15.6976 16.0421 15.9339 16.2784 15.9339 16.5707L15.9028 22.8824C15.9028 23.1747 15.6665 23.411 15.3743 23.411Z" fill="currentColor"/>
<path d="M13.2596 19.1203C13.1228 19.1203 12.986 19.0706 12.8865 18.9649C12.6813 18.7596 12.6813 18.4238 12.8928 18.2186L15.0133 16.123C15.2185 15.9178 15.5543 15.9178 15.7595 16.1292C15.9647 16.3344 15.9647 16.6702 15.7532 16.8754L13.6328 18.9711C13.527 19.0706 13.3965 19.1203 13.2596 19.1203Z" fill="currentColor"/>
<path d="M19.2475 12.1805C19.1107 12.1805 18.9739 12.1307 18.8744 12.025L7.81797 0.900126C7.61276 0.694916 7.61276 0.359117 7.81797 0.153907C8.02318 -0.0513025 8.35898 -0.0513025 8.56419 0.153907L19.6206 11.2788C19.8259 11.484 19.8259 11.8198 19.6206 12.025C19.5149 12.1245 19.3843 12.1805 19.2475 12.1805Z" fill="currentColor"/>
<path d="M14.6896 11.2539C14.5528 11.2539 14.4222 11.2042 14.3165 11.0984L4.0498 0.900125C3.84459 0.694915 3.83837 0.359117 4.0498 0.153907C4.25501 -0.0513025 4.59081 -0.0513025 4.79602 0.153907L15.0689 10.3522C15.2742 10.5574 15.2804 10.8932 15.0689 11.0984C14.9632 11.2042 14.8264 11.2539 14.6896 11.2539Z" fill="currentColor"/>
<path d="M9.8707 10.2589C9.7339 10.2589 9.59709 10.2092 9.4976 10.1034L9.44785 10.0537C9.24264 9.84848 9.24264 9.51268 9.44785 9.30747C9.65306 9.10226 9.98885 9.10226 10.1941 9.30747L10.2438 9.35722C10.449 9.56243 10.449 9.89823 10.2438 10.1034C10.1443 10.2092 10.0075 10.2589 9.8707 10.2589Z" fill="currentColor"/>
<path d="M8.19132 8.6048C8.05452 8.6048 7.92393 8.55506 7.81822 8.45556L0.157051 0.906322C-0.0481586 0.701112 -0.0543756 0.365314 0.150834 0.160104C0.356044 -0.045106 0.691842 -0.0513248 0.897051 0.153885L8.56443 7.69691C8.76964 7.90212 8.77586 8.23791 8.57065 8.44312C8.46494 8.55506 8.32813 8.6048 8.19132 8.6048Z" fill="currentColor"/>
<path d="M16.593 6.6149C16.4997 6.6149 16.4002 6.59003 16.3132 6.53406C16.0645 6.3786 15.9898 6.05524 16.1391 5.8065L16.195 5.71944C16.3505 5.4707 16.6739 5.39608 16.9226 5.54533C17.1713 5.70079 17.246 6.02415 17.0967 6.27289L17.0408 6.35994C16.9413 6.52784 16.7734 6.6149 16.593 6.6149Z" fill="currentColor"/>
<path d="M18.0907 5.14111C17.9539 5.14111 17.8171 5.09136 17.7114 4.98565C17.5062 4.78044 17.5124 4.44464 17.7176 4.23943L21.8715 0.153885C22.0767 -0.0513248 22.4125 -0.045106 22.6178 0.160104C22.823 0.365314 22.8167 0.701112 22.6115 0.906322L18.4576 4.99187C18.3581 5.09136 18.2275 5.14111 18.0907 5.14111Z" fill="currentColor"/>
<path d="M17.0839 9.99786C16.9471 9.99786 16.8103 9.94811 16.7108 9.8424C16.5055 9.63719 16.5055 9.30139 16.717 9.09618L25.7649 0.153993C25.9701 -0.0512168 26.3059 -0.0512165 26.5111 0.160212C26.7163 0.365422 26.7163 0.701221 26.5049 0.906431L17.457 9.84862C17.3513 9.94811 17.2145 9.99786 17.0839 9.99786Z" fill="currentColor"/>
<path d="M19.2477 11.4529C19.1109 11.4529 18.9803 11.4031 18.8746 11.2974C18.6694 11.0922 18.6694 10.7564 18.8746 10.5512L29.2719 0.153907C29.4771 -0.0513025 29.8129 -0.0513025 30.0181 0.153907C30.2233 0.359117 30.2233 0.694916 30.0181 0.900126L19.6208 11.2974C19.5151 11.4031 19.3845 11.4529 19.2477 11.4529Z" fill="currentColor"/>
</svg>
