<svg width="42" height="42" viewBox="0 0 42 42" fill="none" xmlns="http://www.w3.org/2000/svg">
<g clip-path="url(#clip0)">
<path d="M38.9536 8.58067C38.821 7.68899 38.2221 6.92118 37.3906 6.57681L21.9861 0.197489C21.3504 -0.0655854 20.6504 -0.0655854 20.0147 0.197489L4.61025 6.57681C3.77869 6.92118 3.17978 7.68899 3.04722 8.58067C2.72377 10.7566 2.18155 16.5136 4.12618 22.9591C5.20768 26.5436 6.90236 29.8424 9.16314 32.7638C11.8771 36.2707 15.4384 39.2695 19.7482 41.6768C20.1344 41.8923 20.5674 42.0002 21.0004 42.0002C21.4334 42.0002 21.8664 41.8923 22.2526 41.6767C26.5625 39.2695 30.1238 36.2706 32.8377 32.7637C35.0984 29.8424 36.7931 26.5435 37.8746 22.959C39.8193 16.5136 39.277 10.7566 38.9536 8.58067ZM36.698 22.604C34.3873 30.2624 29.3257 36.3182 21.6534 40.6036C21.2509 40.8285 20.7505 40.8286 20.3477 40.6036C12.6753 36.3183 7.61349 30.2624 5.30292 22.604C3.43006 16.3964 3.95178 10.8554 4.26301 8.76131C4.33241 8.29438 4.64568 7.89243 5.08053 7.71245L20.485 1.33313C20.6512 1.26431 20.8259 1.22985 21.0005 1.22985C21.1751 1.22985 21.3498 1.26431 21.516 1.33313L36.9205 7.71245C37.3553 7.89251 37.6685 8.29438 37.7378 8.76131C38.0491 10.8555 38.5708 16.3964 36.698 22.604Z" fill="white"/>
<path d="M34.2089 9.46458L28.188 7.00741C27.8736 6.87928 27.5149 7.02997 27.3868 7.34423C27.2587 7.6585 27.4094 8.01722 27.7236 8.14543L33.7445 10.6026C34.0536 10.7287 34.276 11.0087 34.3249 11.3333C34.5736 12.9817 34.9903 17.3434 33.4941 22.2304C31.6485 28.2588 27.603 33.0272 21.4702 36.4031C21.1811 36.5621 20.8218 36.5621 20.5328 36.4031C14.3999 33.0272 10.3544 28.2589 8.50879 22.2304C7.01246 17.3435 7.42918 12.9818 7.67782 11.3333C7.72679 11.0087 7.94918 10.7287 8.25835 10.6026L20.6308 5.55333C20.8662 5.45719 21.1366 5.45711 21.3721 5.55333L25.088 7.06984C25.4023 7.19797 25.761 7.0472 25.8892 6.73302C26.0174 6.41876 25.8666 6.06003 25.5523 5.93182L21.8364 4.41531C21.2979 4.19555 20.7049 4.19571 20.1663 4.41531L7.79389 9.46458C7.08588 9.75349 6.57565 10.3994 6.46244 11.1501C6.20134 12.8815 5.76346 17.4623 7.33345 22.5902C8.20684 25.443 9.57537 28.0684 11.4011 30.3932C13.5912 33.1822 16.4641 35.5664 19.94 37.4797C20.2674 37.6599 20.6343 37.75 21.0014 37.75C21.3684 37.7499 21.7355 37.6599 22.0628 37.4797C25.5388 35.5665 28.4117 33.1822 30.6018 30.3932C32.4274 28.0684 33.7959 25.4429 34.6693 22.5902C36.2393 17.4622 35.8014 12.8814 35.5402 11.1501C35.427 10.3993 34.9169 9.75349 34.2089 9.46458Z" fill="white"/>
<path d="M19.7762 28.4533H22.2259C23.1028 28.4533 23.8163 27.7432 23.8163 26.8704V24.1539C23.8163 23.9588 23.9783 23.8001 24.1775 23.8001H26.9154C27.7924 23.8001 28.5058 23.09 28.5058 22.2173V19.7867C28.5058 18.9139 27.7924 18.2038 26.9154 18.2038H24.1775C23.9783 18.2038 23.8163 18.0452 23.8163 17.8501V15.1335C23.8163 14.2608 23.1029 13.5507 22.2259 13.5507H19.7762C18.8992 13.5507 18.1857 14.2607 18.1857 15.1335V17.8501C18.1857 18.0451 18.0236 18.2038 17.8245 18.2038H15.0865C14.2096 18.2038 13.4961 18.9139 13.4961 19.7867V22.2173C13.4961 23.0094 14.0907 23.6841 14.8791 23.7867C15.2158 23.831 15.5239 23.5931 15.5678 23.2566C15.6116 22.9201 15.3742 22.6118 15.0377 22.5679C14.8596 22.5447 14.7253 22.394 14.7253 22.2174V19.7868C14.7253 19.5917 14.8873 19.433 15.0865 19.433H17.8245C18.7014 19.433 19.4149 18.7229 19.4149 17.8502V15.1336C19.4149 14.9386 19.577 14.7798 19.7762 14.7798H22.2259C22.4251 14.7798 22.5871 14.9385 22.5871 15.1336V17.8502C22.5871 18.7229 23.3005 19.433 24.1775 19.433H26.9153C27.1146 19.433 27.2767 19.5916 27.2767 19.7868V22.2174C27.2767 22.4124 27.1146 22.5711 26.9153 22.5711H24.1775C23.3005 22.5711 22.5871 23.2812 22.5871 24.154V26.8705C22.5871 27.0656 22.4251 27.2243 22.2259 27.2243H19.7762C19.577 27.2243 19.4149 27.0657 19.4149 26.8705V24.154C19.4149 23.2812 18.7015 22.5711 17.8245 22.5711C17.485 22.5711 17.2099 22.8462 17.2099 23.1857C17.2099 23.5251 17.485 23.8002 17.8245 23.8002C18.0236 23.8002 18.1857 23.9589 18.1857 24.154V26.8706C18.1858 27.7432 18.8992 28.4533 19.7762 28.4533Z" fill="white"/>
</g>
<defs>
<clipPath id="clip0">
<rect width="42" height="42" fill="white"/>
</clipPath>
</defs>
</svg>
