<svg width="18" height="18" viewBox="0 0 18 18" fill="none" xmlns="http://www.w3.org/2000/svg">
<path fill-rule="evenodd" clip-rule="evenodd" d="M17.0303 0.969691C17.2545 1.19382 17.3135 1.53464 17.1778 1.82109L10.4278 16.0711C10.2922 16.3574 9.99135 16.5276 9.67612 16.4964C9.36088 16.4652 9.09924 16.2392 9.02241 15.9319L7.63155 10.3685L2.06812 8.97763C1.76079 8.9008 1.53488 8.63916 1.50367 8.32392C1.47245 8.00869 1.64267 7.70783 1.92895 7.57222L16.179 0.822218C16.4654 0.686532 16.8062 0.745567 17.0303 0.969691ZM4.46503 8.03069L8.43192 9.02242C8.70063 9.08959 8.91045 9.29941 8.97763 9.56812L9.96935 13.535L14.9232 3.07681L4.46503 8.03069Z" fill="currentColor"/>
</svg>
