<svg width="35" height="34" viewBox="0 0 35 34" fill="none" xmlns="http://www.w3.org/2000/svg">
<path d="M21.7944 15.3086C21.7263 15.3084 21.6594 15.2901 21.6006 15.2555L17.234 12.6635L12.5605 15.1941C12.4973 15.228 12.4259 15.2432 12.3544 15.2381C12.283 15.2331 12.2144 15.2078 12.1567 15.1654C12.0989 15.123 12.0544 15.0651 12.0282 14.9984C12.002 14.9317 11.9953 14.8589 12.0087 14.7886L13.0047 9.61085L9.22088 5.96017C9.16725 5.90859 9.12997 5.84238 9.11369 5.76977C9.0974 5.69717 9.10283 5.62138 9.1293 5.55184C9.15576 5.48229 9.20209 5.42207 9.26253 5.37866C9.32296 5.33525 9.39482 5.31057 9.46917 5.30769L11.4004 5.23872C11.501 5.23506 11.5989 5.27152 11.6727 5.34007C11.7464 5.40863 11.7899 5.50366 11.7935 5.60427C11.7972 5.70488 11.7607 5.80282 11.6922 5.87655C11.6236 5.95028 11.5286 5.99375 11.428 5.99741L10.3893 6.03397L13.6778 9.20667C13.7233 9.25054 13.757 9.30506 13.7761 9.36528C13.7951 9.4255 13.7988 9.48952 13.7868 9.55153L12.9033 14.1444L17.0616 11.8931C17.1193 11.862 17.1842 11.8462 17.2498 11.8474C17.3154 11.8486 17.3796 11.8668 17.4361 11.9L21.2613 14.1713L20.3529 9.48118C20.3407 9.41737 20.345 9.3515 20.3654 9.28982C20.3858 9.22814 20.4217 9.17269 20.4695 9.12873L23.8001 6.08501L19.3949 5.85947C19.3258 5.85596 19.259 5.8336 19.2018 5.79482C19.1445 5.75603 19.0989 5.70229 19.0701 5.63945L17.0795 1.30733L15.1042 5.83809C15.075 5.90548 15.0269 5.96294 14.9657 6.00348C14.9044 6.04401 14.8327 6.06587 14.7593 6.06638H13.5868C13.4862 6.06638 13.3897 6.02642 13.3186 5.95528C13.2474 5.88414 13.2074 5.78765 13.2074 5.68704C13.2074 5.58643 13.2474 5.48994 13.3186 5.4188C13.3897 5.34766 13.4862 5.30769 13.5868 5.30769H14.511L16.7223 0.225159C16.7518 0.158784 16.7997 0.102283 16.8604 0.0623729C16.9212 0.0224628 16.992 0.000822022 17.0647 2.29567e-05C17.1373 -0.000776109 17.2087 0.0193002 17.2702 0.0578654C17.3318 0.0964306 17.381 0.151864 17.412 0.217573L19.6611 5.11457L24.7457 5.37667C24.8204 5.38064 24.8922 5.40658 24.9521 5.45122C25.0121 5.49586 25.0575 5.55721 25.0827 5.62758C25.1079 5.69794 25.1117 5.77418 25.0938 5.84673C25.0758 5.91928 25.0368 5.98489 24.9816 6.03535L21.1385 9.54739L22.1669 14.8582C22.1775 14.9131 22.1758 14.9696 22.162 15.0237C22.1481 15.0778 22.1225 15.1282 22.0869 15.1713C22.0513 15.2143 22.0066 15.2489 21.9561 15.2727C21.9055 15.2964 21.8503 15.3087 21.7944 15.3086Z" fill="currentColor"/>
<path d="M22.5873 33.9999H11.4829C11.3823 33.9999 11.2858 33.96 11.2146 33.8888C11.1435 33.8177 11.1035 33.7212 11.1035 33.6206V19.2745C11.1035 19.1739 11.1435 19.0774 11.2146 19.0062C11.2858 18.9351 11.3823 18.8951 11.4829 18.8951H22.5873C22.6879 18.8951 22.7844 18.9351 22.8555 19.0062C22.9267 19.0774 22.9666 19.1739 22.9666 19.2745V33.6206C22.9666 33.7212 22.9267 33.8177 22.8555 33.8888C22.7844 33.96 22.6879 33.9999 22.5873 33.9999ZM11.8622 33.2413H22.2079V19.6538H11.8622V33.2413Z" fill="currentColor"/>
<path d="M11.4838 34H0.379345C0.278736 34 0.182249 33.96 0.111108 33.8889C0.0399668 33.8177 0 33.7213 0 33.6206V22.5162C0 22.4156 0.0399668 22.3191 0.111108 22.2479C0.182249 22.1768 0.278736 22.1368 0.379345 22.1368H11.4838C11.5844 22.1368 11.6809 22.1768 11.752 22.2479C11.8232 22.3191 11.8631 22.4156 11.8631 22.5162V33.6206C11.8631 33.7213 11.8232 33.8177 11.752 33.8889C11.6809 33.96 11.5844 34 11.4838 34ZM0.75869 33.2413H11.1045V22.8955H0.75869V33.2413Z" fill="currentColor"/>
<path d="M33.6918 34H22.5874C22.4867 34 22.3903 33.96 22.3191 33.8889C22.248 33.8177 22.208 33.7213 22.208 33.6206V22.5162C22.208 22.4156 22.248 22.3191 22.3191 22.2479C22.3903 22.1768 22.4867 22.1368 22.5874 22.1368H24.6096C24.7102 22.1368 24.8067 22.1768 24.8778 22.2479C24.949 22.3191 24.989 22.4156 24.989 22.5162C24.989 22.6168 24.949 22.7133 24.8778 22.7844C24.8067 22.8556 24.7102 22.8955 24.6096 22.8955H22.9667V33.2413H33.3125V22.8955H26.9471C26.8465 22.8955 26.75 22.8556 26.6788 22.7844C26.6077 22.7133 26.5677 22.6168 26.5677 22.5162C26.5677 22.4156 26.6077 22.3191 26.6788 22.2479C26.75 22.1768 26.8465 22.1368 26.9471 22.1368H33.6918C33.7924 22.1368 33.8889 22.1768 33.96 22.2479C34.0312 22.3191 34.0712 22.4156 34.0712 22.5162V33.6206C34.0712 33.7213 34.0312 33.8177 33.96 33.8889C33.8889 33.96 33.7924 34 33.6918 34Z" fill="currentColor"/>
<path d="M5.75898 32.3447C4.90639 32.3447 4.07296 32.0919 3.36406 31.6183C2.65517 31.1446 2.10265 30.4713 1.77638 29.6837C1.45011 28.896 1.36474 28.0292 1.53107 27.193C1.6974 26.3568 2.10796 25.5887 2.71083 24.9859C3.31369 24.383 4.08179 23.9724 4.91799 23.8061C5.7542 23.6398 6.62094 23.7251 7.40863 24.0514C8.19631 24.3777 8.86955 24.9302 9.34322 25.6391C9.81689 26.348 10.0697 27.1814 10.0697 28.034C10.0684 29.1769 9.61386 30.2726 8.80572 31.0807C7.99757 31.8889 6.90186 32.3435 5.75898 32.3447ZM5.75898 24.482C5.05645 24.482 4.3697 24.6903 3.78557 25.0806C3.20144 25.4709 2.74616 26.0256 2.47732 26.6747C2.20847 27.3238 2.13813 28.038 2.27518 28.727C2.41224 29.416 2.75054 30.0489 3.2473 30.5457C3.74407 31.0425 4.37698 31.3807 5.06601 31.5178C5.75504 31.6549 6.46923 31.5845 7.11829 31.3157C7.76734 31.0468 8.32209 30.5916 8.71239 30.0074C9.1027 29.4233 9.31102 28.7365 9.31102 28.034C9.31011 27.0922 8.93558 26.1893 8.26964 25.5233C7.6037 24.8574 6.70076 24.4829 5.75898 24.482Z" fill="currentColor"/>
<path d="M17.0705 30.7583C16.2179 30.7583 15.3845 30.5055 14.6756 30.0318C13.9667 29.5581 13.4142 28.8849 13.0879 28.0972C12.7616 27.3095 12.6763 26.4428 12.8426 25.6066C13.0089 24.7704 13.4195 24.0023 14.0224 23.3994C14.6252 22.7966 15.3933 22.386 16.2295 22.2197C17.0657 22.0533 17.9325 22.1387 18.7201 22.465C19.5078 22.7912 20.1811 23.3438 20.6547 24.0527C21.1284 24.7616 21.3812 25.595 21.3812 26.4476C21.38 27.5905 20.9254 28.6862 20.1172 29.4943C19.3091 30.3024 18.2134 30.757 17.0705 30.7583ZM17.0705 22.8955C16.368 22.8955 15.6812 23.1039 15.0971 23.4942C14.513 23.8845 14.0577 24.4392 13.7888 25.0883C13.52 25.7373 13.4497 26.4515 13.5867 27.1405C13.7238 27.8296 14.0621 28.4625 14.5588 28.9592C15.0556 29.456 15.6885 29.7943 16.3775 29.9314C17.0666 30.0684 17.7808 29.9981 18.4298 29.7292C19.0789 29.4604 19.6336 29.0051 20.0239 28.421C20.4142 27.8369 20.6225 27.1501 20.6225 26.4476C20.6216 25.5058 20.2471 24.6028 19.5812 23.9369C18.9152 23.271 18.0123 22.8964 17.0705 22.8955Z" fill="currentColor"/>
<path d="M28.382 32.4825C27.5294 32.4825 26.696 32.2297 25.9871 31.7561C25.2782 31.2824 24.7257 30.6091 24.3994 29.8215C24.0732 29.0338 23.9878 28.167 24.1541 27.3308C24.3205 26.4946 24.731 25.7265 25.3339 25.1237C25.9367 24.5208 26.7048 24.1102 27.541 23.9439C28.3772 23.7776 29.244 23.863 30.0317 24.1892C30.8193 24.5155 31.4926 25.068 31.9663 25.7769C32.4399 26.4858 32.6927 27.3192 32.6927 28.1718C32.6915 29.3147 32.2369 30.4104 31.4287 31.2185C30.6206 32.0267 29.5249 32.4813 28.382 32.4825ZM28.382 24.6198C27.6795 24.6198 26.9927 24.8281 26.4086 25.2184C25.8245 25.6087 25.3692 26.1635 25.1004 26.8125C24.8315 27.4616 24.7612 28.1758 24.8982 28.8648C25.0353 29.5538 25.3736 30.1867 25.8703 30.6835C26.3671 31.1802 27 31.5185 27.689 31.6556C28.3781 31.7927 29.0923 31.7223 29.7413 31.4535C30.3904 31.1846 30.9451 30.7294 31.3354 30.1452C31.7257 29.5611 31.9341 28.8743 31.9341 28.1718C31.9331 27.23 31.5586 26.3271 30.8927 25.6612C30.2267 24.9952 29.3238 24.6207 28.382 24.6198Z" fill="currentColor"/>
<path d="M28.459 30.2693C28.2223 30.2683 27.9887 30.2154 27.7748 30.1141C27.5816 30.0246 27.4103 29.8939 27.273 29.7311C27.1358 29.5683 27.0358 29.3775 26.9802 29.172C26.9537 29.0748 26.9668 28.9711 27.0168 28.8837C27.0667 28.7962 27.1493 28.7322 27.2464 28.7057C27.3436 28.6792 27.4473 28.6923 27.5347 28.7423C27.6221 28.7922 27.6862 28.8748 27.7127 28.9719C27.739 29.0726 27.7873 29.1662 27.8542 29.2459C27.9212 29.3256 28.005 29.3894 28.0996 29.4327C28.3065 29.5306 28.5328 29.532 28.6411 29.4837C29.0349 29.3085 29.1563 29.0478 29.0473 28.6119C28.9887 28.3753 28.5293 28.2864 28.4183 28.2774C28.3177 28.2732 28.2228 28.2292 28.1547 28.1551C28.0865 28.0809 28.0506 27.9828 28.0548 27.8822C28.059 27.7816 28.103 27.6867 28.1771 27.6186C28.2512 27.5504 28.3494 27.5145 28.45 27.5187C28.8514 27.5187 28.8942 26.9973 28.8983 26.9324C28.8866 26.8635 28.7445 26.4841 28.3341 26.4841H28.3196C27.9589 26.4917 27.8596 27.0566 27.8589 27.0621C27.841 27.1595 27.7857 27.2461 27.7049 27.3033C27.624 27.3605 27.5239 27.3838 27.4261 27.3682C27.3283 27.3526 27.2405 27.2994 27.1814 27.2199C27.1223 27.1404 27.0966 27.0409 27.1099 26.9428C27.174 26.5289 27.5072 25.742 28.3045 25.7254C28.4829 25.7191 28.6608 25.7497 28.8269 25.8152C28.9931 25.8807 29.1439 25.9797 29.2701 26.1061C29.546 26.382 29.6639 26.7269 29.6605 26.9393C29.6564 27.2595 29.5511 27.5703 29.3597 27.827C29.5707 27.9681 29.7228 28.1816 29.7874 28.4271C29.9874 29.2264 29.6908 29.8479 28.9521 30.1762C28.796 30.2411 28.628 30.2728 28.459 30.2693Z" fill="currentColor"/>
<path d="M17.1492 28.5512C17.0486 28.5512 16.9521 28.5112 16.881 28.4401C16.8099 28.369 16.7699 28.2725 16.7699 28.1719V25.2406L16.6216 25.3627C16.5832 25.3963 16.5384 25.4219 16.4899 25.4378C16.4414 25.4537 16.3902 25.4597 16.3393 25.4554C16.2885 25.451 16.239 25.4365 16.1939 25.4126C16.1488 25.3887 16.1089 25.3559 16.0768 25.3162C16.0447 25.2766 16.0209 25.2308 16.0068 25.1817C15.9928 25.1326 15.9888 25.0812 15.9951 25.0306C16.0014 24.9799 16.0179 24.931 16.0435 24.8869C16.0691 24.8427 16.1034 24.8042 16.1443 24.7736L16.9134 24.1529C16.969 24.107 17.0365 24.0779 17.1081 24.069C17.1796 24.0602 17.2522 24.0719 17.3174 24.1028C17.3825 24.1337 17.4375 24.1825 17.4759 24.2436C17.5143 24.3046 17.5345 24.3753 17.5341 24.4474V28.1719C17.5341 28.2221 17.5241 28.2719 17.5047 28.3183C17.4853 28.3647 17.4569 28.4068 17.421 28.4421C17.3852 28.4774 17.3428 28.5052 17.2961 28.5239C17.2494 28.5427 17.1995 28.5519 17.1492 28.5512Z" fill="currentColor"/>
<path d="M6.72371 30.2066H4.86147C4.76176 30.2068 4.66599 30.1677 4.59497 30.0977C4.52395 30.0277 4.4834 29.9325 4.48213 29.8328C4.46902 28.9362 4.4704 28.9362 4.53593 28.8265C4.71042 28.5361 5.04632 28.3189 5.40152 28.0885C5.87122 27.7836 6.35747 27.4677 6.35057 27.0753C6.34399 26.9467 6.28759 26.8257 6.19331 26.738C6.08434 26.6401 5.92639 26.6001 5.72362 26.6187C5.26496 26.6601 5.24082 27.0015 5.24082 27.0691C5.24063 27.1696 5.20059 27.2659 5.12947 27.3369C5.05835 27.4079 4.96196 27.4477 4.86147 27.4477C4.81166 27.4477 4.76235 27.4378 4.71636 27.4186C4.67037 27.3995 4.6286 27.3714 4.59344 27.3362C4.55828 27.3009 4.53041 27.259 4.51143 27.2129C4.49245 27.1669 4.48273 27.1175 4.48282 27.0677C4.48282 26.6877 4.72974 25.9469 5.65534 25.8628C6.18021 25.8152 6.51334 26.0055 6.70026 26.1731C6.8249 26.286 6.92545 26.4228 6.99585 26.5755C7.06626 26.7281 7.10507 26.8935 7.10995 27.0615C7.12443 27.8761 6.39816 28.3465 5.81466 28.7251C5.5974 28.8631 5.35531 29.0231 5.23668 29.1527C5.23668 29.2217 5.23668 29.3307 5.23668 29.4479H6.72371C6.82432 29.4479 6.9208 29.4879 6.99194 29.559C7.06309 29.6302 7.10305 29.7267 7.10305 29.8273C7.10305 29.9279 7.06309 30.0244 6.99194 30.0955C6.9208 30.1667 6.82432 30.2066 6.72371 30.2066Z" fill="currentColor"/>
<path d="M21.5519 19.6538C21.4769 19.6538 21.4037 19.6316 21.3413 19.59C21.2789 19.5484 21.2303 19.4893 21.2015 19.42L20.309 17.2743H13.8636L12.909 19.4283C12.8888 19.4739 12.8599 19.515 12.8238 19.5494C12.7877 19.5837 12.7452 19.6106 12.6987 19.6286C12.6522 19.6465 12.6026 19.6551 12.5528 19.6539C12.503 19.6526 12.4539 19.6416 12.4083 19.6214C12.3627 19.6012 12.3216 19.5722 12.2872 19.5362C12.2529 19.5001 12.226 19.4575 12.208 19.4111C12.1901 19.3646 12.1815 19.315 12.1827 19.2652C12.184 19.2153 12.195 19.1662 12.2152 19.1207L13.2698 16.7412C13.2995 16.6744 13.3478 16.6176 13.409 16.5776C13.4701 16.5376 13.5415 16.5161 13.6146 16.5156H20.5622C20.6371 16.5158 20.7103 16.5381 20.7726 16.5797C20.835 16.6213 20.8836 16.6803 20.9125 16.7494L21.9023 19.129C21.9214 19.1751 21.9311 19.2245 21.931 19.2745C21.9309 19.3244 21.921 19.3738 21.9018 19.4199C21.8826 19.4659 21.8544 19.5078 21.819 19.5429C21.7836 19.5781 21.7416 19.606 21.6954 19.6249C21.6499 19.6439 21.6012 19.6538 21.5519 19.6538Z" fill="currentColor"/>
<path d="M19.4495 17.2737C19.3979 17.274 19.3467 17.2637 19.2993 17.2434C19.2518 17.2231 19.209 17.1933 19.1736 17.1557C19.1495 17.1302 18.5812 16.5164 18.2225 15.139C17.8756 13.7913 17.9321 12.9705 17.9321 12.936C17.9357 12.8862 17.949 12.8376 17.9713 12.7929C17.9936 12.7482 18.0245 12.7084 18.0623 12.6757C18.1384 12.6096 18.2378 12.5765 18.3384 12.5836C18.3882 12.5871 18.4368 12.6004 18.4815 12.6228C18.5262 12.6451 18.566 12.676 18.5987 12.7137C18.6315 12.7514 18.6564 12.7952 18.6722 12.8426C18.688 12.89 18.6943 12.94 18.6908 12.9898C18.6908 13.0043 18.6467 13.7416 18.9612 14.9473C19.266 16.1198 19.7275 16.6316 19.7323 16.6371C19.782 16.6914 19.8149 16.759 19.8269 16.8317C19.8389 16.9043 19.8295 16.9789 19.7999 17.0464C19.7704 17.1138 19.7218 17.1712 19.6602 17.2115C19.5986 17.2519 19.5266 17.2735 19.453 17.2737H19.4495Z" fill="currentColor"/>
<path d="M14.9295 17.2055C14.8549 17.2059 14.7819 17.1844 14.7195 17.1436C14.6571 17.1027 14.6081 17.0444 14.5787 16.9759C14.5492 16.9074 14.5406 16.8317 14.554 16.7583C14.5673 16.6849 14.602 16.6171 14.6536 16.5633C14.6536 16.5633 15.1164 16.0571 15.4206 14.908C15.7358 13.7203 15.6917 12.9961 15.691 12.9892C15.6873 12.9394 15.6936 12.8894 15.7093 12.842C15.725 12.7946 15.7499 12.7507 15.7826 12.7129C15.8485 12.6366 15.9421 12.5896 16.0427 12.5823C16.1433 12.575 16.2427 12.6079 16.319 12.6739C16.3568 12.7066 16.3878 12.7464 16.4102 12.791C16.4326 12.8356 16.446 12.8842 16.4497 12.9341C16.4497 12.9679 16.5076 13.779 16.1558 15.1025C15.7965 16.4585 15.2268 17.0627 15.2026 17.0875C15.1674 17.1246 15.1251 17.1542 15.0781 17.1745C15.0312 17.1947 14.9806 17.2053 14.9295 17.2055Z" fill="currentColor"/>
</svg>
