<svg width="18" height="18" viewBox="0 0 18 18" fill="none" xmlns="http://www.w3.org/2000/svg">
<path d="M8.99961 0.224976C4.16121 0.224976 0.224609 4.16158 0.224609 8.99998C0.224609 13.8384 4.16121 17.775 8.99961 17.775C13.838 17.775 17.7746 13.8384 17.7746 8.99998C17.7746 4.16158 13.838 0.224976 8.99961 0.224976ZM8.99961 13.725C8.62633 13.725 8.32461 13.4226 8.32461 13.05C8.32461 12.6774 8.62633 12.375 8.99961 12.375C9.37288 12.375 9.67461 12.6774 9.67461 13.05C9.67461 13.4226 9.37288 13.725 8.99961 13.725ZM9.67461 9.58993V10.35C9.67461 10.7226 9.37288 11.025 8.99961 11.025C8.62633 11.025 8.32461 10.7226 8.32461 10.35V8.99998C8.32461 8.62738 8.62633 8.32498 8.99961 8.32498C9.74413 8.32498 10.3496 7.7195 10.3496 6.97498C10.3496 6.23045 9.74413 5.62498 8.99961 5.62498C8.25508 5.62498 7.64961 6.23045 7.64961 6.97498C7.64961 7.34758 7.34788 7.64998 6.97461 7.64998C6.60133 7.64998 6.29961 7.34758 6.29961 6.97498C6.29961 5.48593 7.51056 4.27498 8.99961 4.27498C10.4887 4.27498 11.6996 5.48593 11.6996 6.97498C11.6996 8.23048 10.8383 9.28888 9.67461 9.58993Z" fill="#B2B2B4"/>
</svg>
