<svg width="28" height="28" viewBox="0 0 28 28" fill="none" xmlns="http://www.w3.org/2000/svg">
<g clip-path="url(#clip0)">
<path d="M17.8608 16.1787C17.8608 18.3203 16.1247 20.0564 13.9832 20.0564C11.8416 20.0564 10.1055 18.3203 10.1055 16.1787C10.1055 14.0371 11.8416 12.301 13.9832 12.301C16.1247 12.301 17.8608 14.0371 17.8608 16.1787Z" fill="currentColor"/>
<path d="M13.963 20.0567C10.7234 20.0678 8.12207 22.7421 8.12207 25.9817V27.1797C8.12207 27.6328 8.4895 28 8.94238 28H19.0247C19.4778 28 19.8451 27.6328 19.8451 27.1797V25.9181C19.8451 22.674 17.2096 20.0454 13.963 20.0567Z" fill="currentColor"/>
<path d="M7.67052 9.34942L9.11974 7.65731C9.51815 7.19247 9.2838 6.46829 8.68737 6.3258L6.52016 5.80841L5.35891 3.90716C5.05151 3.40387 4.29037 3.36477 3.95882 3.90716L2.79735 5.80841L0.630149 6.3258C0.0343539 6.46808 -0.201272 7.19183 0.197562 7.65731L1.64678 9.34942L1.46883 11.57C1.42077 12.1718 2.02618 12.6322 2.60146 12.3929L4.65887 11.5376L6.71584 12.3929C7.28152 12.6279 7.89739 12.1812 7.84847 11.57L7.67052 9.34942Z" fill="currentColor"/>
<path d="M26.3531 9.34942L27.8024 7.65731C28.2008 7.19247 27.9664 6.46829 27.37 6.3258L25.2028 5.80841L24.0415 3.90716C23.7341 3.40387 22.973 3.36477 22.6414 3.90716L21.48 5.80841L19.3128 6.3258C18.717 6.46808 18.4813 7.19183 18.8802 7.65731L20.3294 9.34942L20.1514 11.57C20.1034 12.1718 20.7088 12.6322 21.2841 12.3929L23.3415 11.5376L25.3985 12.3929C25.9641 12.6279 26.58 12.1812 26.5311 11.57L26.3531 9.34942Z" fill="currentColor"/>
<path d="M17.0114 5.8345L18.4606 4.1424C18.859 3.67755 18.6246 2.95337 18.0282 2.81088L15.861 2.29349L14.6997 0.392457C14.3923 -0.111052 13.6312 -0.150145 13.2997 0.392244L12.138 2.29349L9.97076 2.81088C9.37518 2.95316 9.13956 3.67691 9.53839 4.1424L10.9876 5.8345L10.8097 8.05512C10.7614 8.65711 11.367 9.11725 11.9423 8.87821L13.9997 8.02264L16.0567 8.87821C16.6223 9.11298 17.2382 8.66629 17.1893 8.05512L17.0114 5.8345Z" fill="currentColor"/>
</g>
<defs>
<clipPath id="clip0">
<rect width="28" height="28" fill="currentColor"/>
</clipPath>
</defs>
</svg>
