<svg width="20" height="20" viewBox="0 0 20 20" fill="none" xmlns="http://www.w3.org/2000/svg">
<g clip-path="url(#clip0)">
<path d="M10.0008 9.81414C11.8909 9.81414 13.4234 7.95291 13.4234 5.65703C13.4234 3.36111 12.9202 1.49988 10.0008 1.49988C7.08123 1.49988 6.57812 3.36111 6.57812 5.65703C6.57818 7.95291 8.11058 9.81414 10.0008 9.81414Z" fill="currentColor"/>
<path d="M16.4567 15.9937C16.3933 11.9941 15.871 10.8545 11.8738 10.1331C11.8738 10.1331 11.3111 10.85 9.99962 10.85C8.68817 10.85 8.12551 10.1331 8.12551 10.1331C4.17195 10.8466 3.61774 11.9694 3.54489 15.8637C3.53897 16.1817 3.53624 16.1984 3.53516 16.1615C3.53536 16.2307 3.53567 16.3586 3.53567 16.5817C3.53567 16.5817 4.48733 18.5001 9.99967 18.5001C15.512 18.5001 16.4638 16.5817 16.4638 16.5817C16.4638 16.4384 16.4639 16.3386 16.464 16.2709C16.4629 16.2937 16.4607 16.2495 16.4567 15.9937Z" fill="currentColor"/>
<path d="M14.7507 9.07191C16.2859 9.07191 17.5305 7.56027 17.5305 5.69559C17.5305 3.83086 17.1218 2.31921 14.7507 2.31921C14.3519 2.31921 14.0087 2.36213 13.7134 2.44223C14.2611 3.45185 14.3361 4.67814 14.3361 5.657C14.3361 6.76532 14.0357 7.82347 13.4824 8.6996C13.8627 8.93709 14.2936 9.07191 14.7507 9.07191Z" fill="currentColor"/>
<path d="M19.9942 14.0908C19.9427 10.8425 19.5185 9.91688 16.272 9.33093C16.272 9.33093 15.815 9.91327 14.7499 9.91327C14.7058 9.91327 14.6631 9.91193 14.6211 9.91003C15.2979 10.2152 15.9135 10.64 16.3669 11.2617C17.1507 12.3365 17.331 13.7803 17.3681 15.9014C19.5523 15.4698 19.9999 14.5685 19.9999 14.5685C19.9999 14.451 19.9999 14.3705 20.0001 14.3154C19.9992 14.3348 19.9974 14.3 19.9942 14.0908Z" fill="currentColor"/>
<path d="M5.25037 9.07186C5.70747 9.07186 6.1383 8.93704 6.51875 8.69961C5.96546 7.82347 5.66502 6.76532 5.66502 5.657C5.66502 4.67809 5.74008 3.4518 6.28765 2.44223C5.99246 2.36213 5.64931 2.31921 5.25037 2.31921C2.87923 2.31921 2.4707 3.83086 2.4707 5.69559C2.4707 7.56022 3.71523 9.07186 5.25037 9.07186Z" fill="currentColor"/>
<path d="M5.37891 9.90991C5.33698 9.91181 5.29427 9.91315 5.25012 9.91315C4.18497 9.91315 3.72797 9.33081 3.72797 9.33081C0.481625 9.91676 0.0573376 10.8423 0.00592437 14.0907C0.00257581 14.3 0.000875776 14.3346 0 14.3152C0.000103033 14.3703 0.000206065 14.4509 0.000206065 14.5683C0.000206065 14.5683 0.447882 15.4696 2.63186 15.9012C2.66921 13.7802 2.84931 12.3364 3.63323 11.2615C4.08658 10.6399 4.70215 10.215 5.37891 9.90991Z" fill="currentColor"/>
</g>
<defs>
<clipPath id="clip0">
<rect width="20" height="20" fill="currentColor"/>
</clipPath>
</defs>
</svg>
