<svg width="28" height="28" viewBox="0 0 28 28" fill="none" xmlns="http://www.w3.org/2000/svg">
<path d="M26.8334 6.97579C26.1271 6.68331 25.3144 6.84486 24.7736 7.38543L21.1731 10.9863V8.79155C21.1731 7.22856 19.9057 5.96106 18.3425 5.96106H2.83063C1.26743 5.96106 0 7.22856 0 8.79155V19.2086C0 20.7715 1.26743 22.039 2.83063 22.039H18.3425C19.9057 22.039 21.1731 20.7715 21.1731 19.2086V17.0137L24.7736 20.6146C25.1355 20.9763 25.6186 21.1685 26.1106 21.1685C26.354 21.1685 26.5996 21.1211 26.8334 21.0243C27.5394 20.7318 28 20.0427 28 19.2782V8.72179C28 7.95732 27.5394 7.26827 26.8334 6.97579ZM13.3034 14.7333L9.44532 17.6975C9.28076 17.8242 9.08182 17.8889 8.88189 17.8889C8.74271 17.8889 8.60297 17.8576 8.47323 17.7936C8.15733 17.638 7.95734 17.3165 7.95734 16.9642V11.0358C7.95734 10.6834 8.15733 10.362 8.47323 10.2065C8.78927 10.0507 9.16605 10.0879 9.44525 10.3026L13.3033 13.2667C13.5312 13.4417 13.6647 13.7127 13.6647 14C13.6648 14.2873 13.5313 14.5583 13.3034 14.7333Z" fill="currentColor"/>
</svg>
