<svg width="20" height="20" viewBox="0 0 20 20" fill="none" xmlns="http://www.w3.org/2000/svg">
<g clip-path="url(#clip0)">
<path d="M10.0028 0.952148H9.99824C5.00961 0.952148 0.952881 5.01 0.952881 9.99977C0.952881 11.9789 1.59074 13.8133 2.67532 15.3028L1.54776 18.664L5.02544 17.5523C6.45609 18.5 8.1627 19.0474 10.0028 19.0474C14.9914 19.0474 19.0481 14.9884 19.0481 9.99977C19.0481 5.01114 14.9914 0.952148 10.0028 0.952148ZM15.2673 13.7285C15.0491 14.3449 14.1828 14.8561 13.4917 15.0054C13.019 15.106 12.4015 15.1863 10.3228 14.3245C7.66395 13.223 5.95169 10.5211 5.81824 10.3458C5.69044 10.1705 4.74383 8.91518 4.74383 7.61685C4.74383 6.31852 5.40318 5.68631 5.66895 5.41489C5.88723 5.19209 6.248 5.0903 6.59407 5.0903C6.70603 5.0903 6.80669 5.09596 6.89717 5.10048C7.16294 5.11179 7.29639 5.12762 7.47169 5.54721C7.68996 6.0731 8.22151 7.37143 8.28484 7.50489C8.34931 7.63834 8.41377 7.81929 8.3233 7.99459C8.23848 8.17554 8.16383 8.25584 8.03038 8.40965C7.89693 8.56346 7.77026 8.68108 7.63681 8.8462C7.51467 8.98983 7.37669 9.14364 7.5305 9.40941C7.68431 9.66953 8.21586 10.537 8.99848 11.2336C10.0084 12.1327 10.8272 12.42 11.1201 12.5421C11.3384 12.6326 11.5985 12.6111 11.758 12.4415C11.9604 12.2232 12.2104 11.8613 12.4648 11.5051C12.6458 11.2495 12.8742 11.2178 13.114 11.3083C13.3583 11.3931 14.651 12.0321 14.9167 12.1644C15.1825 12.2979 15.3578 12.3612 15.4223 12.4732C15.4856 12.5851 15.4856 13.111 15.2673 13.7285Z" fill="currentColor"/>
</g>
<defs>
<clipPath id="clip0">
<rect width="18.0952" height="18.0952" fill="white" transform="translate(0.952881 0.952148)"/>
</clipPath>
</defs>
</svg>
