<svg xmlns="http://www.w3.org/2000/svg" width="40" height="40" fill="none">
  <path fill="#2F2F3F" d="M7.07737 16.3962c.00448-.1367-.04489-.2695-.13731-.3696-.09243-.1-.22038-.1591-.35591-.1643-.26858.0042-.48245.2506-.47913.5464l.02487 1.8965c.00043.0368.00805.0731.0224.1069.01436.0338.03517.0644.06126.0901.0261.0256.05697.0459.09083.0595.03386.0137.07005.0205.10651.0201l.41448-.0059c.03647-.0004.0725-.0081.10602-.0226.03353-.0144.0639-.0354.08937-.0617.02548-.0263.04557-.0574.05912-.0915.01355-.0342.02031-.0707.01987-.1074l-.02238-1.8965zM4.49773 15.8623c-.26858.0042-.48326.2506-.47912.5464l.02403 1.8966c.00043.0367.00804.073.0224.1068.01436.0338.03519.0644.06128.0901.0261.0257.05695.0459.09081.0596.03386.0136.07006.0204.10653.02l.41448-.0059c.03646-.0004.0725-.0081.10602-.0225.03353-.0145.06389-.0355.08937-.0618.02548-.0263.04557-.0574.05912-.0915s.02031-.0706.01987-.1074l-.02404-1.8965c-.00166-.2974-.22217-.5364-.49075-.5339zM25.0036 11.9055c-1.0718 0-1.9431.9115-1.9431 2.0252v3.9485c0 .1484.0586.2908.1627.3958.1042.1049.2454.1639.3927.1639h2.7762c.1473 0 .2885-.059.3927-.1639.1042-.105.1627-.2474.1627-.3958v-3.9468c.0025-1.1154-.8696-2.0244-1.9439-2.0269zm.8347 5.4139h-1.667v-3.387c0-.5013.3747-.904.829-.9057.4542-.0017.8347.4077.8347.9057l.0033 3.387z"/>
  <path fill="#2F2F3F" d="M39.4457 19.2793h-1.2434v-3.9418c0-.0643-.0001-.1287-.0059-.193.1004-.0566.1807-.1433.2299-.248.0492-.1048.0647-.2224.0445-.3365-.0203-.114-.0753-.2189-.1574-.3-.0822-.0811-.1874-.1343-.301-.1523-.0599-.1957-.1348-.3865-.2238-.5707-.305-.6271-.7779-1.1558-1.3653-1.5264l-.0149-.1094c-.1811-1.3571-.6392-2.66166-1.3454-3.83149-.0496-.0823-.1194-.15035-.2026-.19757-.0833-.04721-.1772-.07202-.2728-.07202-.0955 0-.1894.02481-.2727.07202-.0833.04722-.1531.11527-.2027.19757-.6957 1.15342-1.1504 2.43789-1.3362 3.77469-.7197.3671-1.3015.96-1.6579 1.6893-.089.1843-.1641.375-.2247.5706-.1135.018-.2187.0713-.3009.1524-.0821.081-.1372.1859-.1574.3-.0203.1141-.0047.2317.0445.3364.0491.1048.1295.1915.2298.2481 0 .0643-.005.1286-.005.193v3.9451h-1.7209v-6.1926c.0001-.6483-.0573-1.2953-.1716-1.9333.1419-.0135.2732-.0817.3665-.1902.0934-.1085.1418-.2491.135-.3925-.0067-.1435-.068-.2789-.1711-.378-.1031-.0992-.2401-.1546-.3826-.1546h-.2114c-.2946-1.01257-.7345-1.9763-1.3055-2.86069-.2657-.39179-.5806-.7473-.9368-1.0577-1.2623-1.14411-2.8096-1.92067-4.4763-2.24658-.0857-1.31246-.5566-2.56961-1.3528-3.611758l-.034-.044283c-.0519-.067637-.1185-.1224056-.1946-.1600779-.0762-.0376722-.1599-.0572552-.2447-.0572552-.0849 0-.1686.019583-.2447.0572552-.0762.0376723-.1428.0924409-.1947.1600779l-.0348.044283c-.7962 1.042148-1.2671 2.299298-1.3528 3.611758-1.6667.32591-3.214 1.10247-4.4764 2.24658-.3557.31086-.6705.6663-.9366 1.0577-.5711.88439-1.011 1.84812-1.3056 2.86069h-.2023c-.1417.0004-.2778.0555-.3805.1539-.1027.0984-.1641.2327-.1716.3753-.0075.1426.0394.2827.1311.3915.0917.1089.2213.1782.3621.1938-.1148.6382-.1725 1.2855-.1724 1.9341v6.1926H9.30849v-3.9418c0-.0643.00001-.1287-.00496-.193.10035-.0566.1807-.1433.22986-.248.04917-.1048.06471-.2224.04447-.3365-.02025-.114-.07528-.2189-.15744-.3-.08215-.0811-.18733-.1343-.30091-.1523-.06061-.1956-.13572-.3864-.22466-.5707-.30576-.626-.7789-1.1535-1.36611-1.523l-.01491-.1095c-.18115-1.3571-.63923-2.66161-1.34538-3.83144-.04949-.08232-.1192-.1504-.2024-.19763-.0832-.04724-.17709-.07205-.27259-.07205-.09549 0-.18938.02481-.27258.07205-.0832.04723-.15291.11531-.2024.19763-.69611 1.15324-1.15085 2.43774-1.33627 3.77464-.71973.3671-1.30158.96-1.65789 1.6893-.08903.1842-.16385.375-.22382.5707-.11358.018-.21876.0712-.30091.1523-.08216.0811-.13719.186-.15743.3-.02025.1141-.00471.2317.04446.3365.04917.1047.12952.1914.22986.248 0 .0643-.00581.1287-.00581.193v3.9418H.560635c-.147376 0-.288733.0589-.393021.1639-.1042887.1049-.1629998.2473-.1632195.3958v19.6011c.0002193.1486.0588938.2911.1631585.3962.104264.105.245629.1642.393082.1644H39.449c.1475 0 .289-.0591.3933-.1642.1043-.1051.1629-.2477.1629-.3964V19.839c0-.0738-.0145-.147-.0427-.2151-.0281-.0682-.0694-.1301-.1214-.1822-.052-.052-.1138-.0931-.1816-.121-.0679-.0279-.1405-.042-.2138-.0414zm-4.8576-9.72411c.2856.62781.4968 1.28731.6291 1.96501-.2514-.0547-.5079-.0827-.7651-.0835-.1622.0004-.3242.0119-.4849.0342.133-.6605.3413-1.3034.6209-1.91571zm-.136 3.00351c.487.0018.9638.1404 1.377.4001.4132.2597.7465.6304.9623 1.0703.0108.0234.0207.0468.0315.0694h-4.7408c.0108-.0226.0208-.0468.0315-.0694.2158-.4398.5489-.8104.962-1.0701.413-.2597.8897-.3983 1.3765-.4003zm-2.6394 2.7788v-.1187h5.2738v4.0605h-5.2787l.0049-3.9418zM20.0019 1.55218c.3788.66532.6163 1.40278.6972 2.16554-.2313-.01755-.4643-.02842-.6972-.02842-.2329 0-.4659.01087-.6971.02842.0806-.76149.3181-1.49762.6971-2.16136v-.00418zm-6.3091 6.23178c.2128-.30899.4635-.5897.746-.83547 3.1177-2.82892 8.0027-2.82892 11.1204 0 .2827.24555.5334.52629.746.83547.4523.70034.8131 1.45657 1.0735 2.24994H12.6152c.2623-.792.6244-1.54677 1.0776-2.24575v-.00419zm-1.5576 5.30274c.0001-.6476.0646-1.2936.1923-1.9282h15.3513c.1277.6346.1922 1.2806.1923 1.9282v6.1926H12.1352v-6.1926zM5.69512 9.55519c.2857.62781.49687 1.28731.62916 1.96501-.25115-.0548-.50732-.0828-.76428-.0835-.16223.0004-.32423.0119-.48493.0342.13219-.6604.3397-1.3033.61839-1.91571h.00166zM5.56 12.5587c.48683.002.96351.1406 1.37656.4003.41305.2597.74612.6303.96189 1.0701.01161.0234.02073.0468.03151.0694H3.18922c.01078-.0226.02071-.0468.03149-.0694.21571-.4397.54866-.8102.96155-1.0699.41288-.2597.88938-.3984 1.37608-.4005H5.56zm-2.63936 2.7788v-.1187h5.27209v4.0605H2.914l.00664-3.9418zm5.79765 5.0613H38.8919v3.7805H26.6658c-.0636.0007-.1267.0122-.1865.0343l-6.2627-2.6493c-.0681-.0289-.1412-.0438-.2151-.0438-.0739 0-.147.0149-.2151.0438l-6.2627 2.6493c-.0598-.0221-.1229-.0336-.1865-.0343H1.11022v-3.7805h7.60807zm2.23811 4.9009l-2.41965 1.0234c-.11836.05-.21591.1397-.27606.254-.06015.1142-.07921.2459-.05391.3727.02529.1268.09339.2409.19268.3228.09929.0819.22366.1267.35198.1266h.83309v1.8222c.00022.1485.05892.2909.1632.3959.10429.1049.24565.1639.39307.1639v6.581H7.2237V25.2997h3.7327zm17.5323.98h-16.976l8.4892-3.5925 8.4868 3.5925zm-.4352 10.0808v-6.581h.6946v6.581h-.6946zm-16.1073-6.581v6.581h-.6946v-6.581h.6946zm1.1116 0h.9724v6.581h-.9724v-6.581zm2.084 0h.6946v6.581h-.6946v-6.581zm1.8054 0h1.3894v6.581h-1.3894v-6.581zm2.501 0h1.1041v6.581h-1.1041v-6.581zm2.2149 0h1.3893v6.581h-1.3843l-.005-6.581zm2.501 0h.6946v6.581h-.6946v-6.581zm1.8054 0h.9724v6.581h-.9724v-6.581zm3.334-1.1195H10.6978v-1.2608h18.6074l-.0017 1.2608zM7.2237 37.4801H32.776v1.4002H7.22536l-.00166-1.4002zm25.5531-1.1196h-2.9179v-6.581c.073.0001.1453-.0143.2128-.0424.0675-.0281.1288-.0693.1805-.1213.0516-.0519.0926-.1137.1206-.1817.0279-.0679.0423-.1408.0423-.2144v-1.8205h.8331c.1284.0003.2529-.0443.3524-.1262.0994-.0819.1676-.1959.193-.3228.0254-.1268.0065-.2586-.0537-.3729-.0601-.1144-.1577-.2042-.2762-.2542l-2.418-1.0234h3.7303l.0008 11.0608zM1.11105 25.2997h5.00104v13.5806H1.11022l.00083-13.5806zM33.8876 38.8803V25.2997h5.001v13.5806h-5.001z"/>
  <path fill="#2F2F3F" d="M35.9687 16.3962c-.0041-.2974-.2246-.5364-.4973-.5339-.2727.0025-.4833.2506-.4792.5464l.0241 1.8966c.0013.0742.0316.1449.0844.1967.0528.0518.1238.0805.1974.0798l.4145-.0059c.0364-.0004.0724-.0081.1059-.0226.0335-.0144.0638-.0354.0892-.0617.0254-.0263.0454-.0575.0589-.0916.0134-.0341.0201-.0706.0195-.1073l-.0174-1.8965zM33.3918 15.8623c-.2686.0042-.4825.2506-.4792.5464l.0249 1.8965c.0004.0368.0081.0731.0224.1069.0144.0338.0352.0644.0613.0901.0261.0256.0569.0459.0908.0595.0339.0137.0701.0205.1065.0201l.4145-.0059c.0365-.0004.0725-.0081.106-.0226.0335-.0144.0639-.0354.0894-.0617.0255-.0263.0456-.0574.0591-.0915.0136-.0342.0203-.0707.0199-.1074l-.0249-1.8965c.0045-.1362-.0445-.2687-.1364-.3687-.0919-.1-.2192-.1593-.3543-.1652zM37.369 27.8196h-1.9413c-.11 0-.2154.044-.2931.1224-.0778.0783-.1214.1845-.1214.2953v2.7997c0 .1108.0436.2171.1214.2954.0777.0784.1831.1224.2931.1224h1.9455c.1099 0 .2153-.044.2931-.1224.0777-.0783.1214-.1846.1214-.2954v-2.7997c0-.0552-.0109-.1098-.032-.1608-.0211-.051-.052-.0972-.0909-.136-.0389-.0389-.0851-.0696-.1359-.0903-.0507-.0207-.1051-.0312-.1599-.0306zm-.4144 2.8005h-1.1125v-1.96h1.1116l.0009 1.96zM37.369 32.8601h-1.9413c-.11 0-.2154.044-.2931.1224-.0778.0783-.1214.1846-.1214.2954v2.7996c0 .1108.0436.2171.1214.2954.0777.0784.1831.1224.2931.1224h1.9455c.1099 0 .2153-.044.2931-.1224.0777-.0783.1214-.1846.1214-.2954v-2.7996c0-.0552-.0109-.1099-.032-.1609-.0211-.0509-.052-.0972-.0909-.136-.0389-.0389-.0851-.0695-.1359-.0903-.0507-.0207-.1051-.0311-.1599-.0306zm-.4144 2.8005h-1.1125v-1.9608h1.1116l.0009 1.9608zM4.58511 27.8196H2.63957c-.10992 0-.21534.044-.29306.1223-.07773.0784-.12141.1846-.12141.2954v2.7997c0 .1108.04368.2171.12141.2954.07772.0783.18314.1223.29306.1223h1.94554c.10992 0 .21535-.044.29308-.1223.07773-.0783.12139-.1846.12139-.2954v-2.7997c0-.1108-.04366-.217-.12139-.2954-.07773-.0783-.18316-.1223-.29308-.1223zm-.41448 2.8005H3.05902v-1.96h1.11161v1.96zM4.58511 32.8601H2.63957c-.10992 0-.21534.044-.29306.1224-.07773.0783-.12141.1846-.12141.2953v2.7997c0 .1108.04368.2171.12141.2954.07772.0783.18314.1224.29306.1224h1.94554c.10992 0 .21535-.0441.29308-.1224s.12139-.1846.12139-.2954v-2.7997c0-.1107-.04366-.217-.12139-.2953-.07773-.0784-.18316-.1224-.29308-.1224zm-.41448 2.8005H3.05902v-1.9608h1.11161v1.9608zM20.0026 11.9055c-1.071 0-1.943.9115-1.943 2.0252v3.9485c0 .1484.0585.2908.1626.3958.1042.1049.2455.1639.3928.1639h2.7786c.1473 0 .2886-.059.3927-.1639.1042-.105.1627-.2474.1627-.3958v-3.9468c0-1.1154-.8712-2.0244-1.9464-2.0269zm.8356 5.4139h-1.667v-3.387c0-.5013.3747-.904.8289-.9057.4543-.0017.8381.4044.8381.9057v3.387zM15.0017 11.9055c-1.071 0-1.9431.9115-1.9431 2.0252v3.9485c0 .1484.0585.2908.1627.3958.1041.1049.2454.1639.3927.1639h2.7786c.1473 0 .2886-.059.3928-.1639.1041-.105.1626-.2474.1626-.3958v-3.9468c0-1.1154-.8712-2.0244-1.9463-2.0269zm.8355 5.4139h-1.667v-3.387c0-.5013.3747-.904.829-.9057.4542-.0017.8355.4077.8355.9057l.0025 3.387z"/>
</svg>
