<svg xmlns="http://www.w3.org/2000/svg" width="44" height="44" fill="none">
  <path fill="#313131" d="M41.8574 24.9137h-3.4367v-4.02c0-.1885-.0942-.3685-.2485-.4714l-1.8683-1.2943c-.1972-.1371-.4543-.1371-.6514 0l-1.8683 1.2943c-.1543.1114-.2486.2829-.2486.4714v4.02h-2.4511v-9.0514c0-.3172-.2571-.5743-.5742-.5743h-.2914c-.0085-.48-.0342-.96-.0771-1.44h.0857c.3171 0 .5742-.2572.5742-.5743 0-.3172-.2571-.5743-.5742-.5743h-.2314c-.0943-.6086-.2142-1.2086-.3685-1.8086-.5828-2.28858-2.2026-4.24288-4.448-5.36575 0 0-.0086-.00857-.0171-.00857l-.0258-.01714c-.437-.21429-.8913-.37715-1.3626-.49715l-1.1913-3.39431c-.0857-.23143-.3-.38571-.5399-.38571-.24 0-.4628.15428-.54.38571l-1.2084 3.41146c-.4714.12-.9256.28285-1.3627.49714l-.0257.01714s-.0085.00858-.0171.00858c-2.2454 1.12286-3.8652 3.07716-4.448 5.3657-.1543.6-.2743 1.2001-.3685 1.8086h-.2229c-.3171 0-.5742.2572-.5742.5743 0 .3172.2571.5743.5742.5743h.0772c-.0429.48-.0686.96-.0772 1.44h-.2914c-.3171 0-.5742.2572-.5742.5743v9.0515h-2.4425v-4.02c0-.1886-.0943-.3686-.2485-.4715l-1.86837-1.2943c-.19712-.1371-.45423-.1371-.65135 0l-1.85119 1.2772c-.15426.1114-.24853.2829-.24853.4714v4.02H2.21972c-.3171 0-.57421.2572-.57421.5743v15.6601c0 .3172.25711.5743.57421.5743H41.8489c.3171 0 .5742-.2571.5742-.5743V25.488c.0085-.3171-.2486-.5743-.5657-.5743zm-.5742 3.8744h-4.8079v-2.7258h4.8079v2.7258zm-5.305-8.4944l1.277.8829h-2.5454l1.2684-.8829zm-1.2941 2.0315h2.5882v2.5885h-2.5882v-2.5885zM14.141 16.4366h1.4398v5.0314H14.141v-5.0314zm2.3054 0h1.4399v5.0314h-1.4399v-5.0314zm2.2969 0h1.5769v5.0314h-1.5769v-5.0314zm2.4425 0h1.7141v5.0314h-1.7141v-5.0314zm2.5711 0h1.577v5.0314h-1.577v-5.0314zm2.4426 0h1.4398v5.0314h-1.4398v-5.0314zm2.2968 0h1.4398v5.0314h-1.4398v-5.0314zM22.0429 3.51075l.4628 1.2943c-.1543-.00857-.3086-.01714-.4628-.01714-.1543 0-.3086.00857-.4628.01714l.4628-1.2943zm-6.4878 7.67145c.4971-1.96284 1.9026-3.65142 3.8567-4.62857l.0257-.00857c.8056-.39429 1.7055-.6 2.6054-.6.8998 0 1.7997.20571 2.6053.60857l.0343.01714c1.9455.96858 3.3424 2.65716 3.8481 4.62003.1285.5057.2314 1.0114.3171 1.5257H15.238c.0857-.5228.1886-1.0371.3171-1.5343zm-.4628 2.6658h13.9011c.0428.48.0685.96.0771 1.44H15.0152c0-.48.0257-.96.0771-1.44zm-.9513 8.7686h15.7951v2.2971h-4.8079c-.0343 0-.0686.0086-.0943.0086l-2.7339-1.38c-.1629-.0857-.36-.0857-.5228 0l-2.734 1.38c-.0342-.0086-.0599-.0086-.0942-.0086h-4.808v-2.2971zm-1.0713 9.9086h2.4426v5.9829h-2.4426v-5.9829zm3.591 0h2.7254v5.9829h-2.7254v-5.9829zm3.8738 0h3.0082v5.9829h-3.0082v-5.9829zm4.1566 0h2.7339v5.9829h-2.7253v-5.9829h-.0086zm3.8823 0h2.4426v5.9829h-2.4426v-5.9829zm2.4426-1.1486H13.0697v-1.0028H31.016v1.0028zm-17.912-2.1514l8.9389-4.5257 8.9388 4.5257H13.104zm-4.9879-8.9315l1.27697.8829H6.83912l1.27698-.8829zm-1.29412 2.0315h2.58823v2.5885H6.82198v-2.5885zm.78847 3.7371v2.7258H2.8025v-2.7258h4.80795zM2.8025 29.9366h4.80795v10.6287h-.64278v-4.8086c0-.9943-.77133-1.7915-1.72263-1.7915-.95988 0-1.7312.8058-1.7312 1.7915v4.8086h-.71991V29.9366h.00857zm3.00818 6.1115H4.66226v-.2914c0-.36.25711-.6429.57421-.6429s.57421.2914.57421.6429v.2914zm-1.14842 1.1486h1.14842v3.3686H4.66226v-3.3686zm4.09661 3.3686v-14.503h8.03893l-6.3591 3.2229c-.24.12-.36.3857-.3.6429.06.2571.2914.4371.5571.4371h1.2169v10.2001H8.75887zm4.31083 0v-.9086H31.016v.9086H13.0697zm19.0947-10.1915h1.217c.2657 0 .4971-.18.5571-.4372.0599-.2571-.06-.5228-.3-.6428l-6.3592-3.2229h8.039v14.4944h-3.1625V30.3738h.0086zm7.2505 5.7429h-1.1484v-.36c0-.36.2571-.6429.5742-.6429.3171 0 .5742.2914.5742.6429v.36zm-1.1484 1.1486h1.1484v3.3h-1.1484v-3.3zm2.2968 3.3v-4.8086c0-.9943-.7713-1.7915-1.7226-1.7915-.9513 0-1.7227.8058-1.7227 1.7915v4.8086h-.6427V29.9366h4.8079v10.6287h-.7199z"/>
  <path fill="#313131" d="M21.9916 26.0623c-.7542 0-1.3627.6085-1.3627 1.3628s.6085 1.3629 1.3627 1.3629h.1028c.7542 0 1.3627-.6086 1.3627-1.3629s-.6085-1.3628-1.3627-1.3628h-.1028zm.5999 1.3628c0 .2829-.2485.5143-.5313.5057h-.0772c-.2742 0-.5056-.2228-.5056-.5057 0-.2828.2228-.5057.5056-.5057h.0686c.2914-.0086.5399.2229.5399.5057z"/>
</svg>
